{
  "movies" :[
    {"title" : "Kill Bill"},
    {"title" : "The Lion King"},
    {"title" : "Toy Story 4"},
    {"title" : "Fast & Furious"},
    {"title" : "Spider Man"},
    {"title" : "Avengers: Endgame"},
    {"title" : "Man in Black"},
    {"title" : "Shaft"},
    {"title" : "Dumbo"},
    {"title" : "The Fall of the American Empire"}
  ]
}